Requests to the RenderMaterials endpoint, if an array of byte[16] requests the materials with those IDs.
Response looks like
[
	{
		"ID": [207,12,125,255,150,112,223,135,116,8,227,66,112,30,20,253],
		"Material": {
			"AlphaMaskCutoff":0,
			"DiffuseAlphaMode":0,
			"EnvIntensity":0,
			"NormMap":"c0cb8e75-5164-64d9-12db-8671463bacfa",
			"NormOffsetX":0,
			"NormOffsetY":0,
			"NormRepeatX":10000,
			"NormRepeatY":10000,
			"NormRotation":0,
			"SpecColor": [255,255,255,255],
			"SpecExp":52,
			"SpecMap":"f063d75c-2106-83cb-509f-b9be78b8bb3f",
			"SpecOffsetX":0,
			"SpecOffsetY":0,
			"SpecRepeatX":10000,
			"SpecRepeatY":10000,
			"SpecRotation":0
		}
	}
]

If the request looks like this it *sets* the material.
{
	'FullMaterialsPerFace': [
		{
			'Face':i0,
			'ID':i164033287,
			'Material': {
				'AlphaMaskCutoff':i0,
				'DiffuseAlphaMode':i0,
				'EnvIntensity':i0,
				'NormMap':uc0cb8e75-5164-64d9-12db-8671463bacfa,
				'NormOffsetX':i0,
				'NormOffsetY':i0,
				'NormRepeatX':i10000,
				'NormRepeatY':i10000,
				'NormRotation':i0,
				'SpecColor':[i255,i255,i255,i255],
				'SpecExp':i53,
				'SpecMap':uf063d75c-2106-83cb-509f-b9be78b8bb3f,
				'SpecOffsetX':i0,
				'SpecOffsetY':i0,
				'SpecRepeatX':i10000,
				'SpecRepeatY':i10000,
				'SpecRotation':i0
			}
		},
		{
			'Face':i1,
			'ID':i164033287,
			'Material': {
				'AlphaMaskCutoff':i0,
				'DiffuseAlphaMode':i0,
				'EnvIntensity':i0,
				'NormMap':uc0cb8e75-5164-64d9-12db-8671463bacfa,
				'NormOffsetX':i0,
				'NormOffsetY':i0,
				'NormRepeatX':i10000,
				'NormRepeatY':i10000,
				'NormRotation':i0,
				'SpecColor':[i255,i255,i255,i255],
				'SpecExp':i53,
				'SpecMap':u863509db-0969-c42f-4e16-ad0d9a31c761,
				'SpecOffsetX':i0,'SpecOffsetY':i0,
				'SpecRepeatX':i10000,
				'SpecRepeatY':i10000,
				'SpecRotation':i0
			}
		},
		{
			'Face':i2,
			'ID':i164033287,
			'Material': {
				'AlphaMaskCutoff':i0,
				'DiffuseAlphaMode':i0,
				'EnvIntensity':i0,
				'NormMap':uc0cb8e75-5164-64d9-12db-8671463bacfa,
				'NormOffsetX':i0,
				'NormOffsetY':i0,
				'NormRepeatX':i10000,
				'NormRepeatY':i10000,
				'NormRotation':i0,
				'SpecColor':[i255,i255,i255,i255],
				'SpecExp':i53,
				'SpecMap':u863509db-0969-c42f-4e16-ad0d9a31c761,
				'SpecOffsetX':i0,
				'SpecOffsetY':i0,
				'SpecRepeatX':i10000,
				'SpecRepeatY':i10000,
				'SpecRotation':i0
			}
		},
		{
			'Face':i3,
			'ID':i164033287,
			'Material':{
				'AlphaMaskCutoff':i0,
				'DiffuseAlphaMode':i0,
				'EnvIntensity':i0,
				'NormMap':uc0cb8e75-5164-64d9-12db-8671463bacfa,
				'NormOffsetX':i0,
				'NormOffsetY':i0,
				'NormRepeatX':i10000,
				'NormRepeatY':i10000,
				'NormRotation':i0,
				'SpecColor':[i255,i255,i255,i255],
				'SpecExp':i53,
				'SpecMap':u863509db-0969-c42f-4e16-ad0d9a31c761,
				'SpecOffsetX':i0,
				'SpecOffsetY':i0,
				'SpecRepeatX':i10000,
				'SpecRepeatY':i10000,
				'SpecRotation':i0
			}
		},
		{
			'Face':i4,
			'ID':i164033287,
			'Material':{
				'AlphaMaskCutoff':i0,
				'DiffuseAlphaMode':i0,
				'EnvIntensity':i0,
				'NormMap':uc0cb8e75-5164-64d9-12db-8671463bacfa,
				'NormOffsetX':i0,
				'NormOffsetY':i0,
				'NormRepeatX':i10000,
				'NormRepeatY':i10000,
				'NormRotation':i0,
				'SpecColor':[i255,i255,i255,i255],
				'SpecExp':i53,
				'SpecMap':u863509db-0969-c42f-4e16-ad0d9a31c761,
				'SpecOffsetX':i0,
				'SpecOffsetY':i0,
				'SpecRepeatX':i10000,
				'SpecRepeatY':i10000,
				'SpecRotation':i0
			}
		},
		{
			'Face':i5,
			'ID':i164033287,
			'Material':{
				'AlphaMaskCutoff':i0,
				'DiffuseAlphaMode':i0,
				'EnvIntensity':i0,
				'NormMap':uc0cb8e75-5164-64d9-12db-8671463bacfa,
				'NormOffsetX':i0,
				'NormOffsetY':i0,
				'NormRepeatX':i10000,
				'NormRepeatY':i10000,
				'NormRotation':i0,
				'SpecColor':[i255,i255,i255,i255],
				'SpecExp':i53,
				'SpecMap':u863509db-0969-c42f-4e16-ad0d9a31c761,
				'SpecOffsetX':i0,
				'SpecOffsetY':i0,
				'SpecRepeatX':i10000,
				'SpecRepeatY':i10000,
				'SpecRotation':i0
			}
		}
	]
}
With a response:
[
	{'Face':i0,'ID':i164033287,'MaterialID':b64"SKW+Fh4hKt0gi+30ocPlHA=="},
	{'Face':i1,'ID':i164033287,'MaterialID':b64"C8DJcB2j1svtF8/4bKvw9Q=="},
	{'Face':i2,'ID':i164033287,'MaterialID':b64"C8DJcB2j1svtF8/4bKvw9Q=="},
	{'Face':i3,'ID':i164033287,'MaterialID':b64"C8DJcB2j1svtF8/4bKvw9Q=="},
	{'Face':i4,'ID':i164033287,'MaterialID':b64"C8DJcB2j1svtF8/4bKvw9Q=="},
	{'Face':i5,'ID':i164033287,'MaterialID':b64"C8DJcB2j1svtF8/4bKvw9Q=="}
]